{
  "title": "CHF (manual)",
  "nodes": {
    "start1": {
      "id": "start1",
      "position": {
        "top": 25,
        "left": 555
      },
      "type": "start"
    },
    "end2": {
      "id": "end2",
      "position": {
        "top": 732,
        "left": 560
      },
      "type": "end"
    },
    "measurement4": {
      "headline": "Please type in your blood pressure and pulse in the fields below.",
      "id": "measurement4",
      "position": {
        "top": 174,
        "left": 524
      },
      "measurementType": "BLOOD_PRESSURE_PULSE",
      "measurementForm": "manual",
      "shortText": "Blood pressure and pulse",
      "type": "measurement",
      "helpText": "",
      "helpImage": "null",
      "ctgSensitivityHigh": "true"
    },
    "measurement5": {
      "type": "measurement",
      "measurementType": "WEIGHT",
      "measurementForm": "manual",
      "headline": "Please type in your weight in the field below.",
      "shortText": "Weight",
      "helpText": "",
      "helpImage": "null",
      "ctgSensitivityHigh": "true",
      "id": "measurement5",
      "position": {
        "top": 376,
        "left": 551
      }
    },
    "measurement6": {
      "type": "measurement",
      "measurementType": "SATURATION_W_OUT_PULSE",
      "measurementForm": "manual",
      "headline": "Please type in your oxygen saturation level in the field below.",
      "shortText": "Oxygen saturation",
      "helpText": "",
      "helpImage": "null",
      "ctgSensitivityHigh": "true",
      "id": "measurement6",
      "position": {
        "top": 539,
        "left": 519
      }
    }
  },
  "connections": [
    {
      "source": "start1",
      "target": "measurement4",
      "severity": "",
      "type": "normal"
    },
    {
      "source": "measurement4",
      "target": "measurement5",
      "type": "normal"
    },
    {
      "source": "measurement4",
      "target": "measurement5",
      "measurementSkipped": "true",
      "type": "measurementSkipped"
    },
    {
      "source": "measurement5",
      "target": "measurement6",
      "severity": "",
      "type": "normal"
    },
    {
      "source": "measurement5",
      "target": "measurement6",
      "severity": "",
      "measurementSkipped": "true",
      "type": "measurementSkipped"
    },
    {
      "source": "measurement6",
      "target": "end2",
      "severity": "",
      "type": "normal"
    },
    {
      "source": "measurement6",
      "target": "end2",
      "severity": "",
      "measurementSkipped": "true",
      "type": "measurementSkipped"
    }
  ],
  "standardSchedule": {
    "type": "UNSCHEDULED",
    "reminderStartMinutes": "30",
    "blueAlarmTime.ampm": "PM",
    "reminderTime.ampm": "AM",
    "introPeriodWeeks": "1",
    "dayInterval": "2",
    "startingDate": "07-10-2021",
    "specificDate": "",
    "timesOfDay": [],
    "reminderTime": {
      "hour": "10",
      "minute": "00"
    },
    "blueAlarmTime": {
      "hour": "23",
      "minute": "59"
    }
  }
}